\relax 
\providecommand\hyper@newdestlabel[2]{}
\catcode`"\active
\providecommand\HyperFirstAtBeginDocument{\AtBeginDocument}
\HyperFirstAtBeginDocument{\ifx\hyper@anchor\@undefined
\global\let\oldcontentsline\contentsline
\gdef\contentsline#1#2#3#4{\oldcontentsline{#1}{#2}{#3}}
\global\let\oldnewlabel\newlabel
\gdef\newlabel#1#2{\newlabelxx{#1}#2}
\gdef\newlabelxx#1#2#3#4#5#6{\oldnewlabel{#1}{{#2}{#3}}}
\AtEndDocument{\ifx\hyper@anchor\@undefined
\let\contentsline\oldcontentsline
\let\newlabel\oldnewlabel
\fi}
\fi}
\global\let\hyper@last\relax 
\gdef\HyperFirstAtBeginDocument#1{#1}
\providecommand\HyField@AuxAddToFields[1]{}
\providecommand\HyField@AuxAddToCoFields[2]{}
\citation{rodriguez2013artificial}
\citation{rodriguez2013artificial}
\citation{rodriguez2013artificial}
\select@language{dutch}
\@writefile{toc}{\select@language{dutch}}
\@writefile{lof}{\select@language{dutch}}
\@writefile{lot}{\select@language{dutch}}
\@writefile{toc}{\contentsline {section}{\numberline {1}Inleiding}{1}{section.1}}
\citation{rodriguez2013artificial}
\citation{rodriguez2013artificial}
\citation{rodriguez2013artificial}
\@writefile{toc}{\contentsline {section}{\numberline {2}Bespreking paper}{2}{section.2}}
\newlabel{sec:pap}{{2}{2}{Bespreking paper}{section.2}{}}
\@writefile{toc}{\contentsline {subsection}{\numberline {2.1}Het algoritme}{2}{subsection.2.1}}
\newlabel{sec:pap-alg}{{2.1}{2}{Het algoritme}{subsection.2.1}{}}
\citation{rodriguez2013artificial}
\citation{rodriguez2013artificial}
\citation{rodriguez2013artificial}
\citation{rodriguez2013artificial}
\citation{gallego2012tabu}
\citation{duarte2007tabu}
\citation{gallego2012tabu}
\citation{palubeckis2011}
\citation{palubeckis2011}
\citation{palubeckis2011}
\citation{fan2010}
\citation{gallego2012tabu}
\@writefile{toc}{\contentsline {subsection}{\numberline {2.2}Parameter finetuning}{4}{subsection.2.2}}
\newlabel{sec:pap-par}{{2.2}{4}{Parameter finetuning}{subsection.2.2}{}}
\@writefile{toc}{\contentsline {subsection}{\numberline {2.3}Resultaten op benchmark problemen}{4}{subsection.2.3}}
\newlabel{sec:pap-res}{{2.3}{4}{Resultaten op benchmark problemen}{subsection.2.3}{}}
\citation{rodriguez2013artificial}
\@writefile{toc}{\contentsline {subsection}{\numberline {2.4}Kritische nabeschouwing}{5}{subsection.2.4}}
\newlabel{sec:pap-krit}{{2.4}{5}{Kritische nabeschouwing}{subsection.2.4}{}}
\citation{rodriguez2013artificial}
\citation{rodriguez2013artificial}
\citation{rodriguez2013artificial}
\@writefile{toc}{\contentsline {section}{\numberline {3}Eigen implementatie}{6}{section.3}}
\newlabel{sec:imp}{{3}{6}{Eigen implementatie}{section.3}{}}
\@writefile{toc}{\contentsline {subsection}{\numberline {3.1}Onduidelijkheden}{6}{subsection.3.1}}
\newlabel{sec:imp-ond}{{3.1}{6}{Onduidelijkheden}{subsection.3.1}{}}
\citation{rodriguez2013artificial}
\citation{gallego2012tabu}
\citation{rodriguez2013artificial}
\citation{gallego2012tabu}
\citation{gallego2012tabu}
\citation{gallego2012tabu}
\@writefile{toc}{\contentsline {subsection}{\numberline {3.2}Parallel}{7}{subsection.3.2}}
\newlabel{sec:imp-par}{{3.2}{7}{Parallel}{subsection.3.2}{}}
\@writefile{toc}{\contentsline {subsection}{\numberline {3.3}Proefopstelling}{7}{subsection.3.3}}
\newlabel{sec:imp-proef}{{3.3}{7}{Proefopstelling}{subsection.3.3}{}}
\citation{rodriguez2013artificial}
\citation{rodriguez2013artificial}
\@writefile{lot}{\contentsline {table}{\numberline {1}{\ignorespaces CPU tijdslimieten \cite  {gallego2012tabu}\relax }}{8}{table.caption.1}}
\providecommand*\caption@xref[2]{\@setref\relax\@undefined{#1}}
\newlabel{table: timePaper}{{1}{8}{CPU tijdslimieten \cite {gallego2012tabu}\relax }{table.caption.1}{}}
\@writefile{lot}{\contentsline {table}{\numberline {2}{\ignorespaces CPU langere tijdslimieten \relax }}{8}{table.caption.2}}
\newlabel{table: time}{{2}{8}{CPU langere tijdslimieten \relax }{table.caption.2}{}}
\@writefile{toc}{\contentsline {subsection}{\numberline {3.4}Bespreking resultaten}{8}{subsection.3.4}}
\newlabel{sec:imp-res}{{3.4}{8}{Bespreking resultaten}{subsection.3.4}{}}
\citation{rodriguez2013artificial}
\@writefile{lof}{\contentsline {figure}{\numberline {1}{\ignorespaces $\#Best$ in functie van de $limit$ en $n_d$- parameters.\relax }}{9}{figure.caption.5}}
\newlabel{fig: best-nd-limit}{{1}{9}{$\#Best$ in functie van de $limit$ en $n_d$- parameters.\relax }{figure.caption.5}{}}
\@writefile{toc}{\contentsline {subsection}{\numberline {3.5}Kritische nabeschouwing}{9}{subsection.3.5}}
\newlabel{sec:imp-krit}{{3.5}{9}{Kritische nabeschouwing}{subsection.3.5}{}}
\@writefile{lof}{\contentsline {figure}{\numberline {2}{\ignorespaces $Dev(\%)$ in functie van de $limit$ en $n_d$- parameters.\relax }}{10}{figure.caption.6}}
\newlabel{fig: dev-nd-limit}{{2}{10}{$Dev(\%)$ in functie van de $limit$ en $n_d$- parameters.\relax }{figure.caption.6}{}}
\@writefile{lof}{\contentsline {figure}{\numberline {3}{\ignorespaces $\#Best$ en $Dev(\%)$ in functie van de combinaties van $NO_1$, $NO_2$, $NO_3$. Merk op dat de waarden van $Dev(\%)$ omgekeerd zijn om een beter zicht te geven op wat de beste resultaten zijn.\relax }}{10}{figure.caption.7}}
\newlabel{fig: no-klein}{{3}{10}{$\#Best$ en $Dev(\%)$ in functie van de combinaties van $NO_1$, $NO_2$, $NO_3$. Merk op dat de waarden van $Dev(\%)$ omgekeerd zijn om een beter zicht te geven op wat de beste resultaten zijn.\relax }{figure.caption.7}{}}
\@writefile{lof}{\contentsline {figure}{\numberline {4}{\ignorespaces $\#Best$ en $Dev(\%)$ in met en zonder parallellisatie. Merk op dat de waarden van $Dev(\%)$ omgekeerd zijn om een beter zicht te geven op wat de beste resultaten zijn.\relax }}{11}{figure.caption.8}}
\newlabel{fig: pll-klein}{{4}{11}{$\#Best$ en $Dev(\%)$ in met en zonder parallellisatie. Merk op dat de waarden van $Dev(\%)$ omgekeerd zijn om een beter zicht te geven op wat de beste resultaten zijn.\relax }{figure.caption.8}{}}
\@writefile{lof}{\contentsline {figure}{\numberline {5}{\ignorespaces De resultaten van de experimenten met hogere tijdslimieten zoals gegeven in tabel \ref  {table: time}.\relax }}{11}{figure.caption.9}}
\newlabel{fig: tlarge}{{5}{11}{De resultaten van de experimenten met hogere tijdslimieten zoals gegeven in tabel \ref {table: time}.\relax }{figure.caption.9}{}}
\citation{gallego2012tabu}
\@writefile{toc}{\contentsline {section}{\numberline {4}Toepassing}{12}{section.4}}
\newlabel{sec:toep}{{4}{12}{Toepassing}{section.4}{}}
\citation{gallego2012tabu}
\citation{rodriguez2013artificial}
\@writefile{toc}{\contentsline {subsection}{\numberline {4.1}Probleem}{13}{subsection.4.1}}
\newlabel{sec:toep-prob}{{4.1}{13}{Probleem}{subsection.4.1}{}}
\@writefile{toc}{\contentsline {subsection}{\numberline {4.2}Overeenkomsten}{13}{subsection.4.2}}
\newlabel{sec:toep-eq}{{4.2}{13}{Overeenkomsten}{subsection.4.2}{}}
\@writefile{toc}{\contentsline {subsection}{\numberline {4.3}Verschillen}{13}{subsection.4.3}}
\newlabel{sec:toep-dif}{{4.3}{13}{Verschillen}{subsection.4.3}{}}
\bibstyle{apalike}
\bibdata{verslag}
\bibcite{duarte2007tabu}{{1}{2007}{{Duarte and Mart{\'\i }}}{{}}}
\bibcite{fan2010}{{2}{2010}{{Fan et~al.}}{{}}}
\bibcite{gallego2012tabu}{{3}{2012}{{Gallego et~al.}}{{}}}
\@writefile{toc}{\contentsline {section}{\numberline {5}Conclusie}{14}{section.5}}
\newlabel{sec:con}{{5}{14}{Conclusie}{section.5}{}}
\bibcite{palubeckis2011}{{4}{2011}{{Palubeckis and Karciauskas}}{{}}}
\bibcite{rodriguez2013artificial}{{5}{2013}{{Rodriguez et~al.}}{{}}}
\@writefile{lot}{\contentsline {table}{\numberline {3}{\ignorespaces De resultaten van de experimenten voor de verschillende combinaties van $limit$ en $n_d$.\relax }}{16}{table.caption.3}}
\newlabel{table: param}{{3}{16}{De resultaten van de experimenten voor de verschillende combinaties van $limit$ en $n_d$.\relax }{table.caption.3}{}}
\@writefile{lot}{\contentsline {table}{\numberline {4}{\ignorespaces De resultaten van de experimenten voor de verschillende combinaties van $NO_1$, $NO_2$, $NO_3$\relax }}{16}{table.caption.4}}
\newlabel{table: NO}{{4}{16}{De resultaten van de experimenten voor de verschillende combinaties van $NO_1$, $NO_2$, $NO_3$\relax }{table.caption.4}{}}
